%!PS-Adobe-3.0 EPSF-3.0
%%BoundingBox: 0 0 388 346
%%HiResBoundingBox: 0.000000 0.000000 387.114771 345.111182
%.........................................
%%Creator: ESP Ghostscript 705 (epswrite)
%%CreationDate: 2003/09/05 00:08:14
%%DocumentData: Clean7Bit
%%LanguageLevel: 2
%%EndComments
%%BeginProlog
% This copyright applies to everything between here and the %%EndProlog:
% Copyright (C) 2002 artofcode LLC, Benicia, CA.  All rights reserved.
%%BeginResource: procset GS_epswrite_2_0_1001
/GS_epswrite_2_0_1001 80 dict dup begin
/PageSize 2 array def/setpagesize{ PageSize aload pop 3 index eq exch
4 index eq and{ pop pop pop}{ PageSize dup  1
5 -1 roll put 0 4 -1 roll put dup null eq {false} {dup where} ifelse{ exch get exec}
{ pop/setpagedevice where
{ pop 1 dict dup /PageSize PageSize put setpagedevice}
{ /setpage where{ pop PageSize aload pop pageparams 3 {exch pop} repeat
setpage}if}ifelse}ifelse}ifelse} bind def
/!{bind def}bind def/#{load def}!/N/counttomark #
/rG{3{3 -1 roll 255 div}repeat setrgbcolor}!/G{255 div setgray}!/K{0 G}!
/r6{dup 3 -1 roll rG}!/r5{dup 3 1 roll rG}!/r3{dup rG}!
/w/setlinewidth #/J/setlinecap #
/j/setlinejoin #/M/setmiterlimit #/d/setdash #/i/setflat #
/m/moveto #/l/lineto #/c/rcurveto #
/p{N 2 idiv{N -2 roll rlineto}repeat}!
/P{N 0 gt{N -2 roll moveto p}if}!
/h{p closepath}!/H{P closepath}!
/lx{0 rlineto}!/ly{0 exch rlineto}!/v{0 0 6 2 roll c}!/y{2 copy c}!
/re{4 -2 roll m exch dup lx exch ly neg lx h}!
/^{3 index neg 3 index neg}!
/f{P fill}!/f*{P eofill}!/s{H stroke}!/S{P stroke}!
/q/gsave #/Q/grestore #/rf{re fill}!
/Y{P clip newpath}!/Y*{P eoclip newpath}!/rY{re Y}!
/|={pop exch 4 1 roll 3 array astore cvx exch 1 index def exec}!
/|{exch string readstring |=}!
/+{dup type/nametype eq{2 index 7 add -3 bitshift 2 index mul}if}!
/@/currentfile #/${+ @ |}!
/B{{2 copy string{readstring pop}aload pop 4 array astore cvx
3 1 roll}repeat pop pop true}!
/Ix{[1 0 0 1 11 -2 roll exch neg exch neg]exch}!
/,{true exch Ix imagemask}!/If{false exch Ix imagemask}!/I{exch Ix image}!
/Ic{exch Ix false 3 colorimage}!
/F{/Columns counttomark 3 add -2 roll/Rows exch/K -1/BlackIs1 true>>
/CCITTFaxDecode filter}!/FX{<</EndOfBlock false F}!
/X{/ASCII85Decode filter}!/@X{@ X}!/&2{2 index 2 index}!
/@F{@ &2<<F}!/@C{@X &2 FX}!
/$X{+ @X |}!/&4{4 index 4 index}!/$F{+ @ &4<<F |}!/$C{+ @X &4 FX |}!
/IC{3 1 roll 10 dict begin 1{/ImageType/Interpolate/Decode/DataSource
/ImageMatrix/BitsPerComponent/Height/Width}{exch def}forall
currentdict end image}!
/~{@ read {pop} if}!
end readonly def
%%EndResource
/pagesave null def
%%EndProlog
%%Page: 1 1
%%BeginPageSetup
GS_epswrite_2_0_1001 begin
/pagesave save store 100 dict begin
0.1 0.1 scale
%%EndPageSetup
gsave mark
K
0 0 0 0 rf
Q q
0 0 5950 0 0 8410 ^ Y
K
1866.43 2341.57 m
-552.46 -361.02 -558.01 -393.5 -824.42 -611.21 c
19.01 87.98 -0.32 186.36 -59.49 262.19 c
-162.07 192.1 -460.66 41.63 -581.58 -52.94 c
-113.34 -88.69 -354.58 -338.14 -171.08 -585.29 c
191.1 -241.27 500.92 -59.06 600.19 17.72 c
91.68 70.91 119.16 126.92 228.71 248.06 c
27.02 29.29 440.44 304.25 479.12 322 c
125.89 58.46 250.42 -1.9 301.43 2.54 c
289.94 196.08 1740.55 1371.36 1710.06 1505.96 c
-215.78 -20.98 -1607.12 -1059.37 -1682.94 -1109.04 c
h
464.84 1855.04 m
-159.82 -123.6 -223.29 -309.6 -141.65 -415.15 c
81.64 -105.55 277.61 -90.89 437.43 32.71 c
159.83 123.61 223.29 309.6 141.65 415.15 c
-81.64 105.56 -277.6 90.9 -437.43 -32.71 c
f*
3456.31 1848.32 m
160.78 -122.36 225.68 -307.85 144.86 -414.04 c
-80.81 -106.19 -276.9 -93.05 -437.66 29.32 c
-160.79 122.36 -225.7 307.86 -144.86 414.04 c
80.81 106.19 276.88 93.06 437.66 -29.32 c
h
2051.16 2299.98 m
555.24 -356.74 560.87 -365.17 828.96 -580.81 c
-19.68 87.84 -0.98 168.55 57.59 244.82 c
160.57 193.37 460.32 62.93 581.98 -30.7 c
114.02 -87.82 350.96 -329.51 169.38 -578.09 c
-189.22 -242.75 -500.5 -68.66 -600.35 7.34 c
-92.24 70.19 -114 125.95 -224.48 246.24 c
-27.26 29.09 -442.79 300.83 -481.61 318.28 c
-126.36 57.47 -250.39 -3.84 -301.45 0.2 c
-291.44 193.82 -1745.6 1285.76 -1715.63 1486.69 c
71.71 9.58 1609.44 -1064.92 1685.62 -1113.98 c
f*
255 G
2307.46 2151.48 43.38 -239.22 P
60.38 -24.16 91.37 32.15 96.98 54.1 c
1.64 21.43 -24.47 129.32 -140.36 185.12 c
f*
2094.61 2289.82 m
414.61 310.7 1091.36 854.64 1272.36 1049.23 c
-136.09 -71.84 -766.33 -504.16 -1345.99 -924.24 c
73.63 -124.99 p f*
24 w
11 M
1 J
1 j
317.22 1792.82 m
135.95 167.65 395.66 283.45 538.12 232.91 c
S
0 j
426.58 1326.25 m
105.69 -15.68 302.97 1.4 462.23 208.87 c
S
2935.94 1693.86 m
-44.95 117.2 20.16 206.41 v
S
1051.52 1690.67 m
493.08 410 715.18 534.83 781.18 552.83 c
S
3569.16 1352.04 m
102.12 39.94 130.46 174.62 96.52 267.92 c
S
K
1653.08 2702.74 m
582 0 582 0 v
15.95 -1285.84 3.95 -1498.21 v
78 5.44 117.94 -213.82 14.05 -373.64 c
-181.46 92.55 -302.74 -95.82 -468 -17.82 c
-78 39.65 -108 337.38 -90 527.52 c
17.08 135.2 -48 1351.26 -42 1362.16 c
f*
255 G
1653.08 2702.74 m
582 0 582 0 v
15.95 -1285.84 3.95 -1498.21 v
78 5.44 117.94 -213.82 14.05 -373.64 c
-181.46 92.55 -302.74 -95.82 -468 -17.82 c
-78 39.65 -108 337.38 -90 527.52 c
17.08 135.2 -48 1351.26 -42 1362.16 c
h
S
1679.57 1122.88 m
23.15 -270.79 148.7 -257.57 v
83.56 -4.79 71.45 69.88 26.99 265.7 c
-16.03 62.16 -128.99 20.42 -59.57 -117.33 c
S
1862.16 1465.7 150.47 0 0 64.36 30.64 0 0 -172.33 ^ 0 64.2 -150.47 0 
0 43.78 H
2043.26 1733.63 0 -43.8 -98.09 0 P
-15.56 0 -25.66 -0.53 -30.26 -1.62 c
-7.42 -1.86 -13.38 -6.31 -17.92 -13.31 c
-4.44 -7.12 -6.67 -16.76 -6.67 -29 c
0 -12.42 2.1 -21.79 6.3 -28.1 c
4.28 -6.31 9.52 -10.09 15.7 -11.39 c
6.17 -1.28 16.43 -1.91 30.76 -1.91 c
100.19 0 0 -43.81 -95.12 0 p
-21.74 0 -37.1 1.19 -46.08 3.56 c
-8.98 2.38 -16.55 6.74 -22.73 13.15 c
-6.18 6.31 -11.11 14.8 -14.82 25.45 c
-3.62 10.66 -5.44 24.56 -5.44 41.71 c
0 20.72 1.97 36.46 5.93 47.21 c
4.03 10.63 9.23 19.06 15.56 25.3 c
6.42 6.22 13.14 10.3 20.14 12.26 c
10.38 2.86 25.69 4.3 45.96 4.3 c
96.6 0 h
1951.6 1977.86 m
18.44 0 33.94 -3.3 46.45 -9.91 c
9.23 -4.93 17.5 -11.64 24.83 -20.12 c
7.33 -8.59 12.77 -17.95 16.31 -28.1 c
4.78 -13.5 7.16 -29.09 7.16 -46.75 c
0 -31.94 -8.28 -57.49 -24.83 -76.63 c
-16.56 -19.24 -39.58 -28.82 -69.06 -28.82 c
-29.23 0 -52.13 9.52 -68.68 28.52 c
-16.48 19.03 -24.71 44.48 -24.71 76.34 c
0 32.24 8.2 57.9 24.58 76.93 c
16.48 19.03 39.12 28.55 67.94 28.55 c
h
1952.83 1932.76 m
-20.51 0 -36.07 -5.69 -46.69 -17.02 c
-10.55 -11.36 -15.82 -25.75 -15.82 -43.2 c
0 -17.47 5.23 -31.76 15.7 -42.9 c
10.54 -11.26 26.3 -16.86 47.3 -16.86 c
20.76 0 36.24 5.45 46.45 16.4 c
10.21 10.86 15.32 25.31 15.32 43.36 c
0 18.05 -5.2 32.59 -15.58 43.62 c
-10.28 11.06 -25.86 16.6 -46.69 16.6 c
h
1862.16 2105.24 150.47 0 0 64.33 30.64 0 0 -172.34 ^ 0 64.2 -150.47 0 
0 43.81 H
1862.16 2356.12 181.1 0 0 -70.26 P
0 -26.63 -0.91 -43.98 -2.72 -52.08 c
-2.71 -12.42 -8.64 -22.82 -17.78 -31.21 c
-9.06 -8.38 -20.8 -12.56 -35.21 -12.56 c
-11.12 0 -20.47 2.42 -28.04 7.24 c
-7.57 4.82 -13.55 11.02 -17.92 18.48 c
-4.27 7.4 -7.12 14.95 -8.52 22.66 c
-1.73 10.45 -2.59 25.6 -2.59 45.42 c
0 28.55 -68.32 0 0 43.78 h
2012.63 2312.34 -51.4 0 0 -23.99 P
0 -17.24 0.95 -28.78 2.84 -34.61 c
1.9 -5.81 4.86 -10.36 8.89 -13.61 c
4.03 -3.36 8.74 -5.03 14.09 -5.03 c
6.59 0 12.02 2.33 16.31 6.95 c
4.27 4.64 6.96 10.5 8.03 17.62 c
0.82 5.23 1.24 15.73 1.24 31.51 c
0 21.16 h
1862.16 2558.2 181.1 0 0 -70.26 P
0 -26.64 -0.91 -43.98 -2.72 -52.08 c
-2.71 -12.43 -8.64 -22.82 -17.78 -31.21 c
-9.06 -8.38 -20.8 -12.58 -35.21 -12.58 c
-11.12 0 -20.47 2.42 -28.04 7.25 c
-7.57 4.82 -13.55 11.02 -17.92 18.48 c
-4.27 7.4 -7.12 14.95 -8.52 22.64 c
-1.73 10.46 -2.59 25.61 -2.59 45.42 c
0 28.56 -68.32 0 0 43.78 h
2012.63 2514.42 -51.4 0 0 -23.99 P
0 -17.24 0.95 -28.78 2.84 -34.61 c
1.9 -5.81 4.86 -10.36 8.89 -13.61 c
4.03 -3.36 8.74 -5.03 14.09 -5.03 c
6.59 0 12.02 2.33 16.31 6.95 c
4.27 4.64 6.96 10.5 8.03 17.62 c
0.82 5.23 1.24 15.73 1.24 31.51 c
0 21.16 p f
1 j
K
1678.58 2683.24 280.5 241.5 250.51 -241.5 -531.01 0 H
S
1786.03 2830.06 340.15 0 -68.03 340.16 -204.1 0 -68.03 -340.16 f*
255 G
2013.08 3203.74 66 -348 -56.99 3 -30 342 20.99 3 f*
K
3644.2 661.53 0 -62.7 32.71 0 0 -63 ^ 0 -213 P
0 -26.2 1.31 -40.8 3.91 -43.8 c
2.8 -3 14.09 -4.49 33.9 -4.49 c
0 -64.2 -48.91 0 p
-27.6 0 -47.29 1.1 -59.09 3.3 c
-11.81 2.4 -22.21 7.7 -31.2 15.9 c
-9.01 8.4 -14.6 17.9 -16.8 28.5 c
-2.21 10.8 -3.31 36 -3.31 75.6 c
0 202.2 -26.1 0 0 63 ^ 0 62.7 121.5 0 h
3472.91 608.43 0 -398.1 -123.3 0 2.1 33 P
-8.4 -13.4 -18.8 -23.5 -31.2 -30.31 c
-12.2 -6.6 -26.3 -9.9 -42.31 -9.9 c
-18.19 0 -33.29 3.2 -45.29 9.6 c
-12 6.4 -20.9 14.9 -26.71 25.5 c
-5.59 10.6 -9.08 21.6 -10.49 33 c
-1.4 11.6 -2.1 34.5 -2.1 68.7 c
0 268.5 121.2 0 0 -270.9 p
0 -31 0.9 -49.4 2.69 -55.2 c
2.02 -5.8 7.2 -8.7 15.6 -8.7 c
9.01 0 14.3 3 15.9 9 c
1.81 6 2.71 25.31 2.71 57.91 c
0 267.9 121.2 0 h
3155.5 468.62 0 -97.5 P
0 -35.8 -1.79 -62.1 -5.39 -78.9 c
-3.6 -16.6 -11.3 -32.2 -23.11 -46.8 c
-11.8 -14.4 -26.99 -25.09 -45.6 -32.09 c
-18.4 -6.81 -39.6 -10.2 -63.6 -10.2 c
-26.8 0 -49.5 2.9 -68.09 8.7 c
-18.61 6 -33.11 14.9 -43.51 26.71 c
-10.19 12 -17.48 26.4 -21.9 43.2 c
-4.39 16.99 -6.59 42.39 -6.59 76.2 c
0 102 p
0 37 4 65.9 12 86.7 c
7.99 20.8 22.39 37.51 43.2 50.1 c
20.8 12.6 47.39 18.9 79.79 18.9 c
27.22 0 50.51 -4.1 69.9 -12.3 c
19.61 -8.01 34.7 -18.51 45.3 -31.51 c
10.61 -13 17.81 -26.4 21.6 -40.2 c
4.01 -13.8 6 -34.8 6 -63 c
h
3034.3 498.62 m
0 20.4 -1.09 33.21 -3.3 38.4 c
-2.2 5.4 -6.89 8.1 -14.09 8.1 c
-7.2 0 -12 -2.7 -14.4 -8.1 c
-2.4 -5.19 -3.6 -18 -3.6 -38.4 c
0 -179.69 p
0 -18.81 1.2 -31.1 3.6 -36.9 c
2.4 -5.61 7.09 -8.4 14.09 -8.4 c
7.2 0 11.9 2.6 14.1 7.8 c
2.4 5.2 3.6 16.41 3.6 33.6 c
0 183.6 h
2821.9 661.53 0 -62.7 32.7 0 0 -63 ^ 0 -213 P
0 -26.2 1.31 -40.8 3.9 -43.8 c
2.81 -3 14.1 -4.49 33.91 -4.49 c
0 -64.2 -48.9 0 p
-27.6 0 -47.3 1.1 -59.1 3.3 c
-11.8 2.4 -22.21 7.7 -31.2 15.9 c
-9.01 8.4 -14.6 17.9 -16.8 28.5 c
-2.2 10.8 -3.3 36 -3.3 75.6 c
0 202.2 -26.11 0 0 63 ^ 0 62.7 121.49 0 h
2595.4 608.43 -4.8 -52.2 P
17.6 37.4 43.1 57.21 76.5 59.4 c
0 -140.1 p
-22.19 0 -38.5 -3 -48.9 -9 c
-10.39 -6 -16.8 -14.4 -19.2 -25.2 c
-2.4 -10.61 -3.6 -35.2 -3.6 -73.8 c
0 -157.2 -121.2 0 0 398.1 ^ h
2272.91 454.22 -113.7 0 0 26.71 P
0 30.8 3.5 54.5 10.5 71.1 c
7.2 16.8 21.49 31.59 42.89 44.4 c
21.41 12.8 49.2 19.2 83.41 19.2 c
40.99 0 71.9 -7.31 92.69 -21.9 c
20.81 -14.4 33.31 -32.21 37.5 -53.41 c
4.21 -21 6.31 -64.4 6.31 -130.2 c
0 -199.8 -117.91 0 0 35.41 p
-7.39 -14.21 -16.99 -24.9 -28.8 -32.1 c
-11.59 -7 -25.5 -10.5 -41.69 -10.5 c
-21.2 0 -40.7 5.9 -58.5 17.7 c
-17.6 12 -26.4 38.1 -26.4 78.3 c
0 32.7 p
0 29.8 4.7 50.1 14.1 60.9 c
9.4 10.8 32.7 23.4 69.9 37.8 c
39.79 15.6 61.1 26.09 63.89 31.5 c
2.81 5.4 4.21 16.4 4.21 33 c
0 20.8 -1.61 34.3 -4.8 40.5 c
-3.01 6.4 -8.1 9.6 -15.3 9.6 c
-8.21 0 -13.3 -2.7 -15.31 -8.1 c
-1.99 -5.19 -2.99 -18.89 -2.99 -41.1 c
0 -41.7 h
2311.31 399.63 m
-19.4 -14.2 -30.71 -26.1 -33.91 -35.7 c
-2.99 -9.6 -4.49 -23.4 -4.49 -41.4 c
0 -20.6 1.3 -33.91 3.9 -39.91 c
2.8 -6 8.2 -9 16.19 -9 c
7.61 0 12.52 2.29 14.71 6.9 c
2.4 4.8 3.6 17.19 3.6 37.2 c
0 81.9 h
1969 608.43 -2.09 -35.1 P
10.8 14.2 22.69 24.8 35.69 31.8 c
13.01 7 27.2 10.5 42.61 10.5 c
18.79 0 34.99 -5.1 48.59 -15.3 c
13.81 -10 22.4 -21.6 25.81 -34.8 c
3.4 -13.2 5.09 -35.6 5.09 -67.2 c
0 -167.7 p
0 -36.2 -2.2 -62 -6.59 -77.4 c
-4.21 -15.21 -13 -27.4 -26.4 -36.6 c
-13.2 -9 -29.21 -13.5 -48 -13.5 c
-15.01 0 -28.91 3.5 -41.7 10.5 c
-12.8 7 -24.5 17.4 -35.1 31.2 c
0 -91.2 -121.2 0 0 454.8 123.29 0 h
2003.5 492.62 m
0 24.6 -0.9 39.5 -2.69 44.71 c
-1.81 5.19 -6.8 7.8 -15.01 7.8 c
-7.99 0 -13.2 -3 -15.6 -9 c
-2.2 -6 -3.29 -20.51 -3.29 -43.51 c
0 -165 p
0 -24 1.2 -39 3.6 -45 c
2.4 -6 7.6 -9 15.6 -9 c
7.79 0 12.59 2.7 14.4 8.1 c
1.99 5.6 2.99 19 2.99 40.2 c
0 170.7 h
1806.11 402.33 -156.9 0 0 -86.1 P
0 -18 1.3 -29.6 3.89 -34.8 c
2.6 -5.19 7.61 -7.8 15.01 -7.8 c
9.19 0 15.29 3.4 18.3 10.2 c
3.19 7 4.8 20.4 4.8 40.2 c
0 52.5 114.9 0 0 -29.4 p
0 -24.6 -1.61 -43.5 -4.8 -56.7 c
-3.01 -13.2 -10.21 -27.3 -21.6 -42.3 c
-11.41 -15 -25.91 -26.3 -43.51 -33.91 c
-17.39 -7.4 -39.29 -11.1 -65.69 -11.1 c
-25.61 0 -48.2 3.7 -67.81 11.1 c
-19.58 7.4 -34.9 17.5 -45.89 30.31 c
-10.8 13 -18.3 27.2 -22.51 42.6 c
-4.19 15.6 -6.29 38.2 -6.29 67.8 c
0 116.09 p
0 34.8 4.7 62.2 14.1 82.2 c
9.4 20.2 24.79 35.6 46.19 46.2 c
21.41 10.8 46.01 16.2 73.81 16.2 c
34 0 61.99 -6.5 84 -19.5 c
22.19 -12.81 37.69 -29.9 46.49 -51.3 c
9.01 -21.21 13.51 -51.1 13.51 -89.7 c
0 -52.8 h
1684.6 467.13 0 29.1 P
0 20.6 -1.09 33.91 -3.29 39.91 c
-2.2 6 -6.71 9 -13.51 9 c
-8.4 0 -13.6 -2.6 -15.6 -7.8 c
-1.99 -5 -2.99 -18.7 -2.99 -41.11 c
0 -29.1 35.39 0 h
1489.9 481.23 -107.39 0 0 21.6 P
0 18.39 -1.1 30 -3.3 34.8 c
-2 5 -7.2 7.5 -15.6 7.5 c
-6.8 0 -11.9 -2.3 -15.31 -6.9 c
-3.4 -4.4 -5.09 -11.1 -5.09 -20.09 c
0 -12.2 0.79 -21.21 2.4 -27 c
1.79 -5.6 6.9 -11.8 15.3 -18.6 c
8.6 -6.81 26.09 -16.7 52.49 -29.7 c
35.21 -17.2 58.31 -33.4 69.3 -48.6 c
11 -15.2 16.51 -37.3 16.51 -66.3 c
0 -32.4 -4.21 -56.9 -12.61 -73.5 c
-8.4 -16.41 -22.49 -29.1 -42.3 -38.1 c
-19.58 -8.8 -43.3 -13.2 -71.09 -13.2 c
-30.8 0 -57.2 4.8 -79.2 14.4 c
-21.8 9.6 -36.8 22.6 -45.01 39 c
-8.2 16.4 -12.3 41.19 -12.3 74.4 c
0 19.2 107.41 0 0 -25.2 p
0 -21.41 1.3 -35.31 3.9 -41.7 c
2.8 -6.4 8.2 -9.6 16.19 -9.6 c
8.6 0 14.6 2.1 18 6.3 c
3.41 4.4 5.11 13.5 5.11 27.3 c
0 19 -2.2 30.9 -6.61 35.7 c
-4.6 4.8 -28.09 19 -70.5 42.6 c
-35.59 20 -57.29 38.1 -65.1 54.3 c
-7.79 16.41 -11.7 35.8 -11.7 58.2 c
0 31.8 4.21 55.2 12.61 70.2 c
8.4 15.21 22.6 26.9 42.59 35.11 c
20.21 8.2 43.61 12.3 70.21 12.3 c
26.4 0 48.79 -3.4 67.2 -10.2 c
18.59 -6.6 32.8 -15.4 42.59 -26.4 c
10.01 -11 16.01 -21.2 18 -30.6 c
2.21 -9.4 3.3 -24.11 3.3 -44.1 c
0 -23.1 h
1200.7 481.23 -107.39 0 0 21.6 P
0 18.39 -1.1 30 -3.3 34.8 c
-2 5 -7.2 7.5 -15.6 7.5 c
-6.8 0 -11.9 -2.3 -15.31 -6.9 c
-3.4 -4.4 -5.09 -11.1 -5.09 -20.09 c
0 -12.2 0.79 -21.21 2.4 -27 c
1.8 -5.6 6.9 -11.8 15.3 -18.6 c
8.6 -6.81 26.1 -16.7 52.5 -29.7 c
35.2 -17.2 58.3 -33.4 69.29 -48.6 c
11 -15.2 16.51 -37.3 16.51 -66.3 c
0 -32.4 -4.2 -56.9 -12.6 -73.5 c
-8.4 -16.41 -22.5 -29.1 -42.31 -38.1 c
-19.58 -8.8 -43.3 -13.2 -71.09 -13.2 c
-30.8 0 -57.2 4.8 -79.2 14.4 c
-21.81 9.6 -36.8 22.6 -45.01 39 c
-8.2 16.4 -12.3 41.19 -12.3 74.4 c
0 19.2 107.41 0 0 -25.2 p
0 -21.41 1.3 -35.31 3.9 -41.7 c
2.8 -6.4 8.2 -9.6 16.2 -9.6 c
8.59 0 14.59 2.1 18 6.3 c
3.4 4.4 5.1 13.5 5.1 27.3 c
0 19 -2.2 30.9 -6.61 35.7 c
-4.6 4.8 -28.09 19 -70.49 42.6 c
-35.61 20 -57.3 38.1 -65.11 54.3 c
-7.8 16.41 -11.7 35.8 -11.7 58.2 c
0 31.8 4.2 55.2 12.6 70.2 c
8.4 15.21 22.6 26.9 42.6 35.11 c
20.2 8.2 43.6 12.3 70.2 12.3 c
26.4 0 48.79 -3.4 67.2 -10.2 c
18.6 -6.6 32.8 -15.4 42.6 -26.4 c
10 -11 16 -21.2 18 -30.6 c
2.2 -9.4 3.29 -24.11 3.29 -44.1 c
0 -23.1 h
751.9 454.22 -113.7 0 0 26.71 P
0 30.8 3.5 54.5 10.5 71.1 c
7.2 16.8 21.5 31.59 42.9 44.4 c
21.4 12.8 49.2 19.2 83.4 19.2 c
40.99 0 71.89 -7.31 92.7 -21.9 c
20.79 -14.4 33.3 -32.21 37.5 -53.41 c
4.2 -21 6.3 -64.4 6.3 -130.2 c
0 -199.8 -117.9 0 0 35.41 p
-7.4 -14.21 -17 -24.9 -28.8 -32.1 c
-11.6 -7 -25.5 -10.5 -41.7 -10.5 c
-21.2 0 -40.7 5.9 -58.5 17.7 c
-17.6 12 -26.4 38.1 -26.4 78.3 c
0 32.7 p
0 29.8 4.7 50.1 14.1 60.9 c
9.4 10.8 32.7 23.4 69.9 37.8 c
39.8 15.6 61.1 26.09 63.9 31.5 c
2.79 5.4 4.2 16.4 4.2 33 c
0 20.8 -1.59 34.3 -4.8 40.5 c
-3 6.4 -8.09 9.6 -15.29 9.6 c
-8.21 0 -13.31 -2.7 -15.3 -8.1 c
-2 -5.19 -3 -18.89 -3 -41.1 c
0 -41.7 h
790.3 399.63 m
-19.4 -14.2 -30.7 -26.1 -33.9 -35.7 c
-3 -9.6 -4.5 -23.4 -4.5 -41.4 c
0 -20.6 1.3 -33.91 3.9 -39.91 c
2.8 -6 8.2 -9 16.2 -9 c
7.6 0 12.5 2.29 14.7 6.9 c
2.4 4.8 3.6 17.19 3.6 37.2 c
0 81.9 h
338.8 696.03 127.2 0 P
34.4 0 60.8 -2.7 79.2 -8.1 c
18.6 -5.4 32.5 -13.2 41.7 -23.4 c
9.4 -10.2 15.7 -22.61 18.9 -37.2 c
3.4 -14.4 5.1 -36.81 5.1 -67.2 c
0 -42.31 p
0 -31 -3.2 -53.6 -9.6 -67.8 c
-6.4 -14.2 -18.2 -25.1 -35.4 -32.7 c
-17 -7.6 -39.3 -11.4 -66.9 -11.4 c
-33.9 0 0 -195.6 -126.3 0 0 485.7 h
465.1 612.93 0 -123.6 P
3.6 -0.2 6.7 -0.31 9.3 -0.31 c
11.6 0 19.6 2.8 24 8.4 c
4.6 5.8 6.9 17.7 6.9 35.7 c
0 39.9 p
0 16.6 -2.6 27.4 -7.8 32.4 c
-5.2 5 -16 7.51 -32.4 7.51 c
f
cleartomark end end pagesave restore showpage
%%PageTrailer
%%Trailer
%%Pages: 1
