%!PS-Adobe-3.0 EPSF-3.0
%%Creator: Fredrik Arnerup
%%CreationDate: D:20020930182227
%%LanguageLevel: 2
%%Pages: 1
%%BoundingBox: 0 90 390 450
%%PageOrder: Ascend
%%Title: Passepartout logotype
%%DocumentSuppliedResources: procset gnome-print-procs-0.34
%%EndComments
%%BeginProlog
%%BeginResource: procset gnome-print-procs-0.34
/|/def load def/,/load load
|/n/newpath , |/m/moveto , |/l/lineto , |/c/curveto ,
|/q/gsave , |/Q/grestore , |/rg/setrgbcolor , |/J/setlinecap ,
|/j/setlinejoin , |/w/setlinewidth , |/M/setmiterlimit ,
|/d/setdash , |/i/pop , |/W/clip , |/W*/eoclip , |/n/newpath ,
|/S/stroke , |/f/fill , |/f*/eofill , |/Tj/show , |/Tm/moveto ,
|/FF/findfont ,
|/h/closepath , |/cm/concat , |/rm/rmoveto , |/sp/strokepath ,
|/SP/showpage , |/p/pop , |/EX/exch , |/DF/definefont , |
/F {scalefont setfont} def
%%EndResource
%%EndProlog
%%BeginSetup
%%EndSetup
%%Page: Passepartout 1
%%PageResources: (atend)

%0 setgray
%/ww 350 def
%/hh 420 def
%/ox 20 def
%/oy 10 def
%ox oy moveto
%0 hh rlineto
%ww 0 rlineto
%0 hh neg rlineto
%closepath
%stroke

% *** Scissors ***

-70 40 translate

q
q
q
q
0.5 0.5 0.5 rg
252.38 281.318 m
194.543 244.158 193.957 243.28 166.031 220.817 c
168.081 229.967 163.633 238.374 157.532 246.32 c
140.805 266.462 113.331 251 100.659 241.247 c
88.7817 232.1 65.3508 209.423 84.2651 183.53 c
103.975 158.243 132.65 177.627 143.052 185.545 c
152.659 192.856 156.177 196.79 167.685 209.319 c
170.525 212.349 213.809 240.656 217.853 242.473 c
231.015 248.46 243.936 242.073 249.254 242.495 c
279.613 262.684 432.338 390.178 427.966 397.358 c
420.496 398.356 260.316 286.429 252.38 281.318 c
h
106.011 234.271 m
89.2629 221.525 82.5024 202.203 90.9205 191.142 c
99.3386 180.082 119.763 181.45 136.511 194.196 c
153.259 206.942 160.02 226.264 151.602 237.325 c
143.183 248.386 122.759 247.018 106.011 234.271 c
h
eofill
Q
Q
Q
Q
q
q
q
q
1 1 1 rg
160.272 214.508 m
159.611 227.284 164.394 225.925 157.415 237.578 c
159.53 233.409 166.148 225.883 160.272 214.508 c
h
f
Q
Q
Q
Q
q
q
q
q
1 1 1 rg
94.4089 226.042 m
84.8204 220.641 82.5795 205.796 83.8961 199.466 c
84.6587 209.584 88.6993 220.649 94.4089 226.042 c
h
f
Q
Q
Q
Q
q
q
q
q
0.298 0.298 0.298 rg
252.38 281.318 m
194.543 244.158 213.809 240.656 217.853 242.473 c
231.015 248.46 243.936 242.073 249.254 242.495 c
279.613 262.684 432.338 390.178 427.966 397.358 c
420.496 398.356 260.316 286.429 252.38 281.318 c
h
f
Q
Q
Q
Q
q
q
q
q
1 1 1 rg
223.583 261.914 m
217.853 242.473 l
211.564 239.958 211.647 244.28 211.061 246.566 c
210.891 248.797 214.861 257.058 223.583 261.914 c
h
f
Q
Q
Q
Q
q
q
q
q
q
0.5 0.5 0.5 rg
271.623 283.151 m
329.17 245.544 329.749 244.661 357.5 221.983 c
355.52 231.148 360.034 239.52 366.197 247.419 c
383.079 267.43 410.432 251.756 423.028 241.905 c
434.834 232.665 458.088 209.807 438.974 184.062 c
419.068 158.929 390.545 178.535 380.204 186.533 c
370.654 193.919 367.167 197.879 355.756 210.497 c
352.94 213.55 309.877 242.191 305.847 244.04 c
292.733 250.129 279.762 243.842 274.448 244.305 c
244.245 264.729 92.5152 393.405 96.9421 400.551 c
104.42 401.491 263.726 288.324 271.623 283.151 c
h
417.622 234.971 m
434.27 222.095 440.88 202.722 432.377 191.726 c
423.873 180.731 403.46 182.258 386.811 195.134 c
370.163 208.01 363.552 227.383 372.056 238.378 c
380.56 249.374 400.973 247.847 417.622 234.971 c
h
eofill
Q
Q
Q
Q
q
q
q
q
0.8 0.8 0.8 rg
247.23 277.76 m
204.041 310.124 118.546 379.284 99.692 399.554 c
113.868 395.196 193.268 338.913 258.024 292.655 c
247.23 277.76 l
h
f
Q
Q
Q
Q
q
q
q
q
1 1 1 rg
259.06 287.79 m
261.044 290.786 338.092 234.529 355.658 218.903 c
357.875 216.968 356.112 221.3 357.933 220.663 c
359.798 217.34 359.315 215.591 361.736 212.594 c
343.241 228.864 320.305 244.891 298.19 260.068 c
276.074 275.246 258.222 286.49 259.06 287.79 c
h
f
Q
Q
Q
Q
q
q
q
q
1 1 1 rg
412.902 180.678 m
402.553 176.148 382.174 192.433 379.926 196.068 c
388.937 190.556 402.061 181.287 412.902 180.678 c
h
f
Q
Q
Q
Q
q
q
q
q
1 1 1 rg
386.804 251.225 m
402.193 254.363 417.711 243.159 421.778 237.758 c
412.073 244.959 397.864 251.833 386.804 251.225 c
h
f
Q
Q
Q
Q
q
q
q
q
q
0 0 0 rg
265.19 275.9 m
267.423 274.173 267.834 270.958 266.107 268.725 c
264.379 266.492 261.165 266.081 258.931 267.808 c
256.698 269.535 256.287 272.75 258.015 274.983 c
259.742 277.217 262.956 277.627 265.19 275.9 c
h
f
Q
Q
Q
Q
q
q
q
q
0.498 0.498 0.498 rg
264.464 274.963 m
266.439 273.435 266.802 270.593 265.275 268.619 c
263.748 266.644 260.906 266.281 258.931 267.808 c
256.956 269.335 256.593 272.177 258.12 274.152 c
259.648 276.127 262.49 276.49 264.464 274.963 c
h
f
Q
Q
Q
Q
q
q
q
q
0 0 0 rg
261.672 267.34 m
263.206 267.539 l
262.129 275.823 l
260.595 275.623 l
261.672 267.34 l
h
f
Q
Q
Q
Q

% *** Glue ***

0 -10 translate
q
q
q
q
q
0.8 0.8 0.8 rg
255.288 327.838 m
234.686 312.947 l
290.885 311.17 l
271.764 327.542 l
255.288 327.838 l
h
f
Q
Q
Q
Q
q
q
q
q
0.6 0.6 0.6 rg
258.251 328.727 m
241.5 311.17 l
264.218 310.874 l
265.245 328.134 l
258.251 328.727 l
h
f
Q
Q
Q
Q
Q
q
q
q
q
0 0 1 rg
293.346 136.224 m
292.095 142.724 298.608 144.406 298.608 150.548 c
297.254 157.584 295.55 163.455 297.565 170.431 c
298.801 177.572 286.02 185.489 286.02 192.724 c
283.766 194.892 293.911 194.978 293.911 197.544 c
292.499 208.954 292.867 220.372 292.867 231.887 c
292.867 239.519 292.867 247.151 292.867 254.782 c
293.545 262.606 286.569 270.424 286.569 278.28 c
286.569 285.711 289.4 297.03 289.749 311.359 c
235.306 313.838 l
234.853 301.403 232.851 298.08 232.851 290.932 c
231.712 279.095 236.54 268.96 236.54 257.037 c
236.54 247.415 231.806 236.018 234.435 226.912 c
235.28 222.526 231.637 217.413 232.851 213.209 c
232.851 203.971 232.851 194.733 232.851 185.494 c
231.241 178.061 234.43 169.727 234.43 162.075 c
235.544 158.216 234.68 155.66 235.982 151.152 c
235.982 148.274 236.81 141.942 234.939 139.782 c
252.251 147.385 287.142 133.364 293.346 136.224 c
h
f
Q
Q
Q
Q
q
q
q
q
q
1 0 0 rg
252.918 362.504 m
245.945 325.984 l
280.811 325.984 l
273.838 362.504 l
252.918 362.504 l
h
f
Q
Q
Q
Q
q
q
q
q
1 1 1 rg
267.732 361.912 m
271.13 326.28 l
275.181 326.577 l
269.986 361.912 l
267.732 361.912 l
h
f
Q
Q
Q
Q
q
q
q
q
0.8 0 0 rg
253.806 362.207 m
246.834 326.872 l
259.478 326.577 l
260.801 362.207 l
253.806 362.207 l
h
f
Q
Q
Q
Q
q
q
q
q
0.8 0 0 rg
263.584 361.911 m
264.612 326.576 l
271.626 326.577 l
267.023 361.911 l
263.584 361.911 l
h
f
Q
Q
Q
Q
Q
q
q
q
q
0.498 0.498 1 rg
293.871 136.224 m
292.619 142.724 298.608 144.406 298.608 150.548 c
297.254 157.584 295.55 163.455 297.565 170.431 c
298.801 177.572 293.911 194.978 293.911 197.544 c
292.499 208.954 292.867 220.372 292.867 231.887 c
292.867 239.519 292.867 247.151 292.867 254.782 c
293.545 262.606 286.569 270.424 286.569 278.28 c
286.569 285.711 289.4 297.03 289.749 311.359 c
252.618 312.789 l
252.165 300.353 258.556 296.506 244.917 290.408 c
243.778 278.571 253.326 282.074 246.507 264.906 c
246.507 255.284 271.152 274.838 247.551 238.978 c
248.396 234.592 246.326 216.364 247.54 212.16 c
247.54 202.921 273.246 208.897 273.246 199.658 c
271.635 192.225 296.06 128.642 293.871 136.224 c
h
f
Q
Q
Q
Q
q
q
q
q
0 0 1 rg
260.846 285.339 m
256.728 285.339 253.975 279.045 255.224 290.96 c
261.131 294.504 267.181 295.299 270.841 288.711 c
270.841 284.59 270.374 281.127 268.342 277.469 c
266.882 273.526 271.465 267.204 271.465 262.854 c
268.934 260.576 268.971 257.236 266.468 254.983 c
266.468 251.883 265.773 248.3 268.342 245.99 c
268.342 242.379 270.62 240.567 273.339 238.119 c
273.339 234.169 274.015 229.217 272.09 225.753 c
272.09 221.99 271.525 218.391 274.588 215.634 c
273.37 213.442 270.345 207.202 267.717 207.202 c
265.77 207.953 256.474 216.223 256.474 218.445 c
256.474 222.014 261.776 221.112 265.844 222.942 c
267.775 226.418 264.593 230.201 264.593 234.185 c
264.593 238.639 263.97 242.746 263.97 247.114 c
263.97 249.697 263.098 254.762 265.219 256.67 c
265.219 262.691 265.844 268.011 265.844 274.096 c
264.952 277.306 265.662 279.881 263.344 281.966 c
262.626 282.613 260.846 283.369 260.846 285.339 c
h
f
Q
Q
Q
Q
q
q
q
q
1 1 1 rg
273.418 301.759 m
273.604 291.466 l
273.644 289.224 273.142 287.538 272.096 286.406 c
271.05 285.266 269.542 284.678 267.574 284.643 c
265.551 284.606 263.959 285.188 262.797 286.389 c
261.636 287.58 261.033 289.424 260.988 291.921 c
260.927 295.311 l
253.491 295.177 l
253.378 301.397 l
273.418 301.759 l
h
264.987 295.385 m
265.014 293.867 l
265.036 292.674 265.256 291.839 265.675 291.363 c
266.103 290.888 266.64 290.656 267.287 290.668 c
267.916 290.679 268.445 290.898 268.875 291.326 c
269.305 291.753 269.509 292.545 269.489 293.702 c
269.457 295.466 l
264.987 295.385 l
h
f
Q
q
0 0 0 rg
0.031352 w 0 J 0 j 11 M
[]0 d
273.418 301.759 m
273.604 291.466 l
273.644 289.224 273.142 287.538 272.096 286.406 c
271.05 285.266 269.542 284.678 267.574 284.643 c
265.551 284.606 263.959 285.188 262.797 286.389 c
261.636 287.58 261.033 289.424 260.988 291.921 c
260.927 295.311 l
253.491 295.177 l
253.378 301.397 l
273.418 301.759 l
h
264.987 295.385 m
265.014 293.867 l
265.036 292.674 265.256 291.839 265.675 291.363 c
266.103 290.888 266.64 290.656 267.287 290.668 c
267.916 290.679 268.445 290.898 268.875 291.326 c
269.305 291.753 269.509 292.545 269.489 293.702 c
269.457 295.466 l
264.987 295.385 l
h
S
Q
Q
q
q
1 1 1 rg
273.783 281.542 m
273.97 271.248 l
274.01 269.007 273.507 267.32 272.461 266.189 c
271.415 265.049 269.908 264.461 267.94 264.425 c
265.917 264.389 264.324 264.971 263.163 266.171 c
262.002 267.363 261.399 269.207 261.354 271.704 c
261.293 275.094 l
253.856 274.959 l
253.744 281.179 l
273.783 281.542 l
h
265.352 275.167 m
265.38 273.65 l
265.401 272.456 265.622 271.622 266.04 271.146 c
266.468 270.671 267.006 270.439 267.653 270.45 c
268.282 270.462 268.811 270.681 269.241 271.108 c
269.671 271.535 269.875 272.328 269.854 273.485 c
269.822 275.248 l
265.352 275.167 l
h
f
Q
q
0 0 0 rg
0.031352 w 0 J 0 j 11 M
[]0 d
273.783 281.542 m
273.97 271.248 l
274.01 269.007 273.507 267.32 272.461 266.189 c
271.415 265.049 269.908 264.461 267.94 264.425 c
265.917 264.389 264.324 264.971 263.163 266.171 c
262.002 267.363 261.399 269.207 261.354 271.704 c
261.293 275.094 l
253.856 274.959 l
253.744 281.179 l
273.783 281.542 l
h
265.352 275.167 m
265.38 273.65 l
265.401 272.456 265.622 271.622 266.04 271.146 c
266.468 270.671 267.006 270.439 267.653 270.45 c
268.282 270.462 268.811 270.681 269.241 271.108 c
269.671 271.535 269.875 272.328 269.854 273.485 c
269.822 275.248 l
265.352 275.167 l
h
S
Q
Q
q
q
1 1 1 rg
274.124 262.705 m
274.465 243.882 l
269.516 243.792 l
269.402 250.108 l
254.311 249.835 l
254.199 256.027 l
269.29 256.3 l
269.176 262.615 l
274.124 262.705 l
h
f
Q
q
0 0 0 rg
0.031352 w 0 J 0 j 11 M
[]0 d
274.124 262.705 m
274.465 243.882 l
269.516 243.792 l
269.402 250.108 l
254.311 249.835 l
254.199 256.027 l
269.29 256.3 l
269.176 262.615 l
274.124 262.705 l
h
S
Q
Q
q
q
1 1 1 rg
264.468 241.677 m
267.739 241.736 270.303 240.871 272.158 239.081 c
274.014 237.292 274.971 234.77 275.03 231.517 c
275.09 228.182 274.239 225.595 272.477 223.759 c
270.723 221.922 268.233 220.974 265.007 220.916 c
262.665 220.874 260.735 221.235 259.217 222.001 c
257.709 222.758 256.521 223.876 255.656 225.355 c
254.8 226.825 254.352 228.672 254.311 230.896 c
254.271 233.156 254.597 235.035 255.29 236.534 c
255.983 238.023 257.1 239.242 258.642 240.191 c
260.184 241.139 262.126 241.635 264.468 241.677 c
h
264.552 235.484 m
262.529 235.448 261.083 235.048 260.212 234.285 c
259.342 233.512 258.918 232.479 258.942 231.185 c
258.966 229.854 259.417 228.832 260.296 228.119 c
261.175 227.406 262.736 227.069 264.977 227.11 c
266.864 227.144 268.233 227.552 269.085 228.333 c
269.946 229.105 270.365 230.143 270.341 231.446 c
270.319 232.694 269.859 233.689 268.961 234.429 c
268.063 235.17 266.594 235.521 264.552 235.484 c
h
f
Q
q
0 0 0 rg
0.031352 w 0 J 0 j 11 M
[]0 d
264.468 241.677 m
267.739 241.736 270.303 240.871 272.158 239.081 c
274.014 237.292 274.971 234.77 275.03 231.517 c
275.09 228.182 274.239 225.595 272.477 223.759 c
270.723 221.922 268.233 220.974 265.007 220.916 c
262.665 220.874 260.735 221.235 259.217 222.001 c
257.709 222.758 256.521 223.876 255.656 225.355 c
254.8 226.825 254.352 228.672 254.311 230.896 c
254.271 233.156 254.597 235.035 255.29 236.534 c
255.983 238.023 257.1 239.242 258.642 240.191 c
260.184 241.139 262.126 241.635 264.468 241.677 c
h
264.552 235.484 m
262.529 235.448 261.083 235.048 260.212 234.285 c
259.342 233.512 258.918 232.479 258.942 231.185 c
258.966 229.854 259.417 228.832 260.296 228.119 c
261.175 227.406 262.736 227.069 264.977 227.11 c
266.864 227.144 268.233 227.552 269.085 228.333 c
269.946 229.105 270.365 230.143 270.341 231.446 c
270.319 232.694 269.859 233.689 268.961 234.429 c
268.063 235.17 266.594 235.521 264.552 235.484 c
h
S
Q
Q
q
q
1 1 1 rg
275.173 204.718 m
275.285 198.54 l
263.338 198.324 l
262.153 198.302 261.029 198.469 259.965 198.823 c
258.91 199.169 257.979 199.731 257.172 200.509 c
256.374 201.279 255.808 202.094 255.473 202.954 c
255.005 204.148 254.756 205.589 254.725 207.275 c
254.707 208.25 254.756 209.317 254.872 210.477 c
254.988 211.628 255.24 212.594 255.627 213.376 c
256.023 214.158 256.588 214.879 257.324 215.54 c
258.06 216.191 258.822 216.643 259.61 216.894 c
260.879 217.3 262.006 217.512 262.99 217.529 c
274.937 217.745 l
275.049 211.567 l
262.815 211.345 l
261.721 211.326 260.87 211.009 260.261 210.397 c
259.662 209.775 259.372 208.927 259.391 207.851 c
259.41 206.785 259.726 205.957 260.339 205.366 c
260.96 204.767 261.827 204.477 262.939 204.497 c
275.173 204.718 l
h
f
Q
q
0 0 0 rg
0.031352 w 0 J 0 j 11 M
[]0 d
275.173 204.718 m
275.285 198.54 l
263.338 198.324 l
262.153 198.302 261.029 198.469 259.965 198.823 c
258.91 199.169 257.979 199.731 257.172 200.509 c
256.374 201.279 255.808 202.094 255.473 202.954 c
255.005 204.148 254.756 205.589 254.725 207.275 c
254.707 208.25 254.756 209.317 254.872 210.477 c
254.988 211.628 255.24 212.594 255.627 213.376 c
256.023 214.158 256.588 214.879 257.324 215.54 c
258.06 216.191 258.822 216.643 259.61 216.894 c
260.879 217.3 262.006 217.512 262.99 217.529 c
274.937 217.745 l
275.049 211.567 l
262.815 211.345 l
261.721 211.326 260.87 211.009 260.261 210.397 c
259.662 209.775 259.372 208.927 259.391 207.851 c
259.41 206.785 259.726 205.957 260.339 205.366 c
260.96 204.767 261.827 204.477 262.939 204.497 c
275.173 204.718 l
h
S
Q
Q
q
q
1 1 1 rg
275.334 195.847 m
275.674 177.024 l
270.726 176.934 l
270.611 183.249 l
255.52 182.977 l
255.408 189.169 l
270.499 189.442 l
270.385 195.757 l
275.334 195.847 l
h
f
Q
q
0 0 0 rg
0.031352 w 0 J 0 j 11 M
[]0 d
275.334 195.847 m
275.674 177.024 l
270.726 176.934 l
270.611 183.249 l
255.52 182.977 l
255.408 189.169 l
270.499 189.442 l
270.385 195.757 l
275.334 195.847 l
h
S
Q
Q
Q
Q
q
q
q
q
1 1 1 rg
274.04 312.647 m
274.04 309.111 273.003 305.792 273.003 302.155 c
272.551 299.416 273.295 294.204 271.965 292.187 c
271.965 291.498 271.689 286.941 272.311 286.941 c
273.879 289.914 273.695 291.33 273.695 294.81 c
273.695 297.608 275.771 306.177 275.771 308.975 c
276.725 311.867 274.733 308.196 274.733 311.598 c
274.648 306.096 274.387 308.196 274.04 312.647 c
h
f
Q
Q
Q
Q
q
q
q
q
1 1 1 rg
296.621 147.397 m
296.621 149.324 285.513 167.607 284.031 172.054 c
282.853 172.643 282.178 172.579 280.883 172.579 c
275.366 174.943 279.288 194.748 273.538 199.857 c
268.509 209.854 273.742 212.364 271.965 217.694 c
271.221 221.044 273.539 231.442 273.014 234.481 c
276.32 236.055 274.063 226.058 273.539 220.317 c
276.463 217.393 267.529 211.877 269.342 208.251 c
270.038 205.469 280.183 189.016 277.736 177.3 c
281.287 174.341 280.472 174.464 284.556 173.103 c
286.127 168.39 292.451 155.212 293.998 151.07 c
294.408 149.432 295.884 148.873 296.621 147.397 c
h
f
Q
Q
Q
Q
q
q
q
q
1 1 1 rg
267.768 256.514 m
267.768 260.003 267.8 265.99 270.391 268.581 c
272.27 264.823 274.588 259.663 274.588 255.466 c
278.282 251.773 274.968 258.849 276.162 261.236 c
276.162 264.605 281.337 259.137 280.883 274.351 c
279.813 273.015 279.592 264 278.26 263.335 c
275.881 259.765 280.783 256.514 275.637 256.514 c
272.847 257.444 270.392 261.843 270.392 264.383 c
270.041 262.629 268.293 258.736 267.768 256.514 c
h
f
Q
Q
Q
Q
q
q
q
q
0 0 1 rg
231.571 162.086 m
231.221 153.517 232.446 145.474 230.522 136.38 c
254.828 134.282 273.889 134.282 298.195 130.085 c
298.545 140.577 300.993 151.069 299.769 161.561 c
277.036 161.736 254.304 161.911 231.571 162.086 c
h
f
Q
Q
Q
Q
q
q
q
q
0 0 0.702 rg
231.571 165.233 m
232.096 153.691 l
301.867 155.265 l
299.769 164.708 l
231.571 165.233 l
h
f
Q
Q
Q
Q
q
q
q
q
0 0 0.702 rg
236.817 160.512 m
236.817 166.283 236.817 172.054 236.817 177.824 c
236.817 180.99 236.444 184.424 237.866 187.267 c
237.866 188.56 236.819 199.802 237.353 201.403 c
242.01 201.403 244.686 188.015 244.686 184.644 c
244.911 183.402 248.085 179.117 246.254 177.285 c
247.93 174.771 247.146 171.529 250.456 171.529 c
251.433 173.483 251.867 171.71 253.604 172.578 c
255.207 174.182 256.702 176.775 258.85 176.775 c
263.783 178.185 262.522 177.785 262.522 174.152 c
261.482 169.991 273.934 165.238 279.258 165.238 c
282.919 163.408 267.724 161.606 270.391 158.939 c
271.252 158.078 274.65 157.365 271.965 157.365 c
266.746 157.365 267.285 157.91 264.096 156.316 c
262.278 155.952 260.424 156.25 260.424 154.217 c
255.719 153.276 251.288 154.217 246.784 154.217 c
243.027 154.635 238.39 153.956 238.39 158.414 c
237.892 159.411 237.866 159.53 236.817 160.512 c
h
f
Q
Q
Q
Q
q
q
q
q
0 0 1 rg
231.221 165.757 m
228.678 165.792 228.939 159.205 230.697 157.363 c
232.567 155.055 300.278 155.59 302.566 156.314 c
305.267 157.056 303.929 163.219 302.566 165.757 c
301.591 166.923 253.001 165.113 231.221 165.757 c
h
f
Q
Q
Q
Q
q
q
q
q
1 1 1 rg
235.592 158.414 m
235.242 155.49 235.154 165.584 236.641 164.185 c
237.81 164.691 237.89 158.438 235.592 158.414 c
h
f
Q
Q
Q
Q
q
q
q
q
1 1 1 rg
242.238 158.414 m
241.888 155.49 241.101 164.535 242.588 163.136 c
243.757 163.642 244.536 158.438 242.238 158.414 c
h
f
Q
Q
Q
Q
q
q
q
q
0 0 0.702 rg
268.487 140.391 m
264.483 140.391 257.41 137.778 253.328 137.778 c
248.013 136.449 242.082 137.255 236.602 137.255 c
236.602 138.904 235.556 137.867 235.556 139.869 c
235.556 142.819 232.943 145.011 232.943 147.709 c
231.681 150.234 232.452 153 233.466 155.027 c
237.299 155.027 241.132 155.027 244.965 155.027 c
246.351 155.72 243.864 157.063 241.829 155.027 c
239.746 154.333 243.397 153.187 243.397 150.846 c
243.397 148.344 244.746 145.619 247.578 145.619 c
248.498 145.068 254.497 141.713 255.419 139.869 c
257.569 139.331 260.282 140.835 262.214 139.869 c
263.746 139.358 267.965 140.391 268.487 140.391 c
h
f
Q
Q
Q
Q
q
q
q
q
1 1 1 rg
242.063 150.72 m
242.063 149.313 244.521 149.651 245.21 148.272 c
247.075 146.407 247.748 143.375 250.806 143.375 c
253.39 142.406 255.555 141.093 258.15 140.228 c
262.464 138.995 265.83 139.523 270.041 140.927 c
273 142.618 273.799 146.843 277.036 147.922 c
280.091 149.231 281.305 145.545 283.331 147.572 c
284.962 148.659 287.223 148.316 288.577 149.671 c
290.733 149.671 291.292 151.07 293.474 151.07 c
294.055 151.07 298.02 150.461 298.02 151.769 c
294.609 151.769 290.861 149.804 287.528 148.971 c
285.337 148.752 283.035 147.922 280.883 147.922 c
277.7 147.126 275.097 144.075 271.79 144.075 c
268.228 141.7 267.201 141.627 263.047 141.627 c
260.934 140.922 253.431 140.664 251.506 141.627 c
250.376 142.756 249.839 143.334 248.358 144.075 c
247.493 144.939 246.882 146.873 245.56 146.873 c
245.042 148.425 244.161 147.546 244.161 149.321 c
243.27 149.766 243.673 150.02 242.063 150.72 c
h
f
Q
Q
Q
Q

% *** Text ***


-5 0 translate
q
q
q
q
0 0 0 rg
102.153 122.034 m
114.769 122.034 l
118.181 122.034 120.8 121.766 122.625 121.231 c
124.47 120.695 125.848 119.921 126.761 118.91 c
127.693 117.898 128.318 116.668 128.635 115.22 c
128.973 113.792 129.141 111.57 129.141 108.555 c
129.141 104.359 l
129.141 101.284 128.824 99.0428 128.189 97.6343 c
127.554 96.2259 126.384 95.1448 124.678 94.391 c
122.992 93.6372 120.78 93.2602 118.042 93.2602 c
114.68 93.2602 l
114.68 73.8596 l
102.153 73.8596 l
102.153 122.034 l
h
114.68 113.792 m
114.68 101.532 l
115.037 101.512 115.345 101.503 115.602 101.503 c
116.753 101.503 117.547 101.78 117.983 102.336 c
118.439 102.911 118.667 104.091 118.667 105.877 c
118.667 109.834 l
118.667 111.481 118.409 112.552 117.894 113.048 c
117.378 113.544 116.307 113.792 114.68 113.792 c
h
f
Q
Q
q
q
0 0 0 rg
143.126 98.0509 m
131.849 98.0509 l
131.849 100.699 l
131.849 103.754 132.196 106.105 132.891 107.751 c
133.605 109.418 135.023 110.885 137.146 112.155 c
139.268 113.425 142.025 114.059 145.418 114.059 c
149.484 114.059 152.549 113.335 154.612 111.887 c
156.675 110.459 157.915 108.693 158.332 106.591 c
158.748 104.508 158.956 100.203 158.956 93.6768 c
158.956 73.8596 l
147.262 73.8596 l
147.262 77.3708 l
146.528 75.9623 145.576 74.901 144.406 74.1869 c
143.255 73.4926 141.877 73.1455 140.27 73.1455 c
138.167 73.1455 136.233 73.7307 134.468 74.901 c
132.722 76.0913 131.849 78.68 131.849 82.6673 c
131.849 85.9106 l
131.849 88.8663 132.315 90.8798 133.248 91.951 c
134.18 93.0222 136.491 94.2719 140.181 95.7002 c
144.128 97.2475 146.241 98.2889 146.519 98.8245 c
146.796 99.3601 146.935 100.451 146.935 102.098 c
146.935 104.161 146.776 105.5 146.459 106.115 c
146.162 106.749 145.656 107.067 144.942 107.067 c
144.128 107.067 143.622 106.799 143.424 106.263 c
143.226 105.748 143.126 104.389 143.126 102.187 c
143.126 98.0509 l
h
146.935 92.6354 m
145.011 91.227 143.89 90.0466 143.573 89.0945 c
143.275 88.1423 143.126 86.7735 143.126 84.9882 c
143.126 82.945 143.255 81.6258 143.513 81.0307 c
143.791 80.4356 144.327 80.138 145.12 80.138 c
145.874 80.138 146.36 80.3662 146.578 80.8224 c
146.816 81.2985 146.935 82.5284 146.935 84.5121 c
146.935 92.6354 l
h
f
Q
Q
q
q
0 0 0 rg
187.641 100.729 m
176.988 100.729 l
176.988 102.871 l
176.988 104.696 176.879 105.847 176.661 106.323 c
176.463 106.819 175.947 107.067 175.114 107.067 c
174.439 107.067 173.933 106.839 173.596 106.382 c
173.259 105.946 173.09 105.282 173.09 104.389 c
173.09 103.179 173.17 102.286 173.328 101.711 c
173.507 101.155 174.013 100.54 174.846 99.866 c
175.699 99.1915 177.435 98.2096 180.053 96.9202 c
183.544 95.2142 185.836 93.6074 186.927 92.0998 c
188.018 90.5922 188.563 88.4002 188.563 85.5238 c
188.563 82.3102 188.147 79.8801 187.314 78.2337 c
186.48 76.607 185.082 75.3474 183.118 74.4547 c
181.174 73.5819 178.823 73.1455 176.066 73.1455 c
173.011 73.1455 170.392 73.6216 168.21 74.5737 c
166.048 75.5259 164.56 76.8153 163.747 78.442 c
162.934 80.0686 162.527 82.5284 162.527 85.8213 c
162.527 87.7257 l
173.18 87.7257 l
173.18 85.2262 l
173.18 83.1037 173.309 81.725 173.566 81.0902 c
173.844 80.4554 174.38 80.138 175.173 80.138 c
176.026 80.138 176.621 80.3463 176.959 80.7629 c
177.296 81.1993 177.464 82.1019 177.464 83.4707 c
177.464 85.3552 177.246 86.5355 176.81 87.0116 c
176.354 87.4877 174.023 88.8961 169.817 91.2369 c
166.286 93.2206 164.134 95.0158 163.36 96.6226 c
162.587 98.2493 162.2 100.173 162.2 102.395 c
162.2 105.549 162.616 107.87 163.45 109.358 c
164.283 110.866 165.691 112.026 167.675 112.839 c
169.678 113.653 171.999 114.059 174.638 114.059 c
177.256 114.059 179.478 113.722 181.303 113.048 c
183.148 112.393 184.556 111.52 185.528 110.429 c
186.52 109.338 187.115 108.327 187.314 107.394 c
187.532 106.462 187.641 105.004 187.641 103.02 c
187.641 100.729 l
h
f
Q
Q
q
q
0 0 0 rg
216.325 100.729 m
205.673 100.729 l
205.673 102.871 l
205.673 104.696 205.564 105.847 205.345 106.323 c
205.147 106.819 204.631 107.067 203.798 107.067 c
203.124 107.067 202.618 106.839 202.281 106.382 c
201.943 105.946 201.775 105.282 201.775 104.389 c
201.775 103.179 201.854 102.286 202.013 101.711 c
202.191 101.155 202.697 100.54 203.53 99.866 c
204.383 99.1915 206.119 98.2096 208.738 96.9202 c
212.229 95.2142 214.52 93.6074 215.611 92.0998 c
216.702 90.5922 217.248 88.4002 217.248 85.5238 c
217.248 82.3102 216.831 79.8801 215.998 78.2337 c
215.165 76.607 213.766 75.3474 211.802 74.4547 c
209.858 73.5819 207.508 73.1455 204.75 73.1455 c
201.695 73.1455 199.077 73.6216 196.895 74.5737 c
194.733 75.5259 193.245 76.8153 192.431 78.442 c
191.618 80.0686 191.211 82.5284 191.211 85.8213 c
191.211 87.7257 l
201.864 87.7257 l
201.864 85.2262 l
201.864 83.1037 201.993 81.725 202.251 81.0902 c
202.529 80.4554 203.064 80.138 203.858 80.138 c
204.711 80.138 205.306 80.3463 205.643 80.7629 c
205.98 81.1993 206.149 82.1019 206.149 83.4707 c
206.149 85.3552 205.931 86.5355 205.494 87.0116 c
205.038 87.4877 202.707 88.8961 198.502 91.2369 c
194.971 93.2206 192.818 95.0158 192.045 96.6226 c
191.271 98.2493 190.884 100.173 190.884 102.395 c
190.884 105.549 191.301 107.87 192.134 109.358 c
192.967 110.866 194.376 112.026 196.359 112.839 c
198.363 113.653 200.684 114.059 203.322 114.059 c
205.941 114.059 208.162 113.722 209.987 113.048 c
211.832 112.393 213.241 111.52 214.213 110.429 c
215.204 109.338 215.8 108.327 215.998 107.394 c
216.216 106.462 216.325 105.004 216.325 103.02 c
216.325 100.729 l
h
f
Q
Q
q
q
0 0 0 rg
247.688 92.9032 m
232.125 92.9032 l
232.125 84.3633 l
232.125 82.578 232.254 81.4274 232.512 80.9117 c
232.77 80.3959 233.266 80.138 234 80.138 c
234.913 80.138 235.518 80.4753 235.815 81.1497 c
236.133 81.844 236.291 83.1731 236.291 85.137 c
236.291 90.3442 l
247.688 90.3442 l
247.688 87.4282 l
247.688 84.9882 247.529 83.1136 247.212 81.8043 c
246.914 80.4951 246.2 79.0966 245.069 77.6088 c
243.938 76.121 242.5 75.0002 240.755 74.2464 c
239.029 73.5124 236.857 73.1455 234.238 73.1455 c
231.699 73.1455 229.457 73.5124 227.513 74.2464 c
225.569 74.9804 224.052 75.9822 222.961 77.2517 c
221.89 78.5411 221.146 79.9496 220.729 81.477 c
220.312 83.0243 220.104 85.2659 220.104 88.2018 c
220.104 99.7172 l
220.104 103.169 220.57 105.887 221.503 107.87 c
222.435 109.874 223.962 111.401 226.085 112.453 c
228.208 113.524 230.648 114.059 233.405 114.059 c
236.777 114.059 239.554 113.415 241.737 112.125 c
243.938 110.856 245.476 109.16 246.349 107.037 c
247.241 104.934 247.688 101.969 247.688 98.1402 c
247.688 92.9032 l
h
235.637 99.3304 m
235.637 102.217 l
235.637 104.26 235.528 105.579 235.309 106.174 c
235.091 106.769 234.645 107.067 233.97 107.067 c
233.137 107.067 232.621 106.809 232.423 106.293 c
232.225 105.797 232.125 104.438 232.125 102.217 c
232.125 99.3304 l
235.637 99.3304 l
h
f
Q
Q
q
q
0 0 0 rg
263.845 113.345 m
263.637 109.864 l
264.708 111.272 265.888 112.324 267.178 113.018 c
268.467 113.712 269.875 114.059 271.403 114.059 c
273.268 114.059 274.874 113.554 276.223 112.542 c
277.592 111.55 278.445 110.399 278.782 109.09 c
279.119 107.781 279.288 105.559 279.288 102.425 c
279.288 85.7916 l
279.288 82.2011 279.07 79.6421 278.633 78.1146 c
278.217 76.607 277.344 75.397 276.015 74.4845 c
274.706 73.5918 273.119 73.1455 271.254 73.1455 c
269.766 73.1455 268.388 73.4926 267.118 74.1869 c
265.848 74.8812 264.688 75.9127 263.637 77.2815 c
263.637 68.2358 l
251.615 68.2358 l
251.615 113.345 l
263.845 113.345 l
h
267.267 101.86 m
267.267 104.3 267.178 105.777 266.999 106.293 c
266.82 106.809 266.325 107.067 265.511 107.067 c
264.718 107.067 264.202 106.769 263.964 106.174 c
263.746 105.579 263.637 104.141 263.637 101.86 c
263.637 85.494 l
263.637 83.1136 263.756 81.6258 263.994 81.0307 c
264.232 80.4356 264.748 80.138 265.541 80.138 c
266.315 80.138 266.791 80.4058 266.969 80.9414 c
267.168 81.4969 267.267 82.826 267.267 84.9287 c
267.267 101.86 l
h
f
Q
Q
q
q
0 0 0 rg
293.987 98.0509 m
282.71 98.0509 l
282.71 100.699 l
282.71 103.754 283.057 106.105 283.751 107.751 c
284.466 109.418 285.884 110.885 288.006 112.155 c
290.129 113.425 292.886 114.059 296.279 114.059 c
300.345 114.059 303.41 113.335 305.473 111.887 c
307.536 110.459 308.776 108.693 309.192 106.591 c
309.609 104.508 309.817 100.203 309.817 93.6768 c
309.817 73.8596 l
298.123 73.8596 l
298.123 77.3708 l
297.389 75.9623 296.437 74.901 295.267 74.1869 c
294.116 73.4926 292.738 73.1455 291.131 73.1455 c
289.028 73.1455 287.094 73.7307 285.328 74.901 c
283.583 76.0913 282.71 78.68 282.71 82.6673 c
282.71 85.9106 l
282.71 88.8663 283.176 90.8798 284.108 91.951 c
285.041 93.0222 287.352 94.2719 291.042 95.7002 c
294.989 97.2475 297.102 98.2889 297.379 98.8245 c
297.657 99.3601 297.796 100.451 297.796 102.098 c
297.796 104.161 297.637 105.5 297.32 106.115 c
297.022 106.749 296.517 107.067 295.802 107.067 c
294.989 107.067 294.483 106.799 294.285 106.263 c
294.087 105.748 293.987 104.389 293.987 102.187 c
293.987 98.0509 l
h
297.796 92.6354 m
295.872 91.227 294.751 90.0466 294.434 89.0945 c
294.136 88.1423 293.987 86.7735 293.987 84.9882 c
293.987 82.945 294.116 81.6258 294.374 81.0307 c
294.652 80.4356 295.187 80.138 295.981 80.138 c
296.735 80.138 297.221 80.3662 297.439 80.8224 c
297.677 81.2985 297.796 82.5284 297.796 84.5121 c
297.796 92.6354 l
h
f
Q
Q
q
q
0 0 0 rg
325.975 113.345 m
325.499 108.168 l
327.244 111.877 329.773 113.841 333.086 114.059 c
333.086 100.164 l
330.884 100.164 329.268 99.866 328.236 99.2709 c
327.205 98.6758 326.57 97.8426 326.332 96.7714 c
326.094 95.72 325.975 93.2801 325.975 89.4515 c
325.975 73.8596 l
313.953 73.8596 l
313.953 113.345 l
325.975 113.345 l
h
f
Q
Q
q
q
0 0 0 rg
348.44 118.612 m
348.44 112.393 l
351.683 112.393 l
351.683 106.144 l
348.44 106.144 l
348.44 85.0179 l
348.44 82.4193 348.569 80.9712 348.827 80.6736 c
349.105 80.3761 350.225 80.2273 352.189 80.2273 c
352.189 73.8596 l
347.339 73.8596 l
344.602 73.8596 342.648 73.9687 341.477 74.1869 c
340.307 74.425 339.275 74.9506 338.383 75.764 c
337.49 76.5971 336.935 77.5394 336.716 78.5907 c
336.498 79.6619 336.389 82.1614 336.389 86.0891 c
336.389 106.144 l
333.8 106.144 l
333.8 112.393 l
336.389 112.393 l
336.389 118.612 l
348.44 118.612 l
h
f
Q
Q
q
q
0 0 0 rg
381.528 99.4792 m
381.528 89.8086 l
381.528 86.2578 381.35 83.6492 380.993 81.9829 c
380.636 80.3364 379.872 78.7891 378.702 77.341 c
377.531 75.9127 376.024 74.8514 374.179 74.1572 c
372.354 73.4827 370.251 73.1455 367.871 73.1455 c
365.212 73.1455 362.961 73.4331 361.116 74.0084 c
359.271 74.6035 357.833 75.4862 356.801 76.6566 c
355.79 77.8468 355.066 79.2751 354.629 80.9414 c
354.193 82.6276 353.975 85.1469 353.975 88.4994 c
353.975 98.6163 l
353.975 102.286 354.371 105.153 355.165 107.216 c
355.958 109.279 357.387 110.935 359.45 112.185 c
361.513 113.435 364.151 114.059 367.365 114.059 c
370.063 114.059 372.374 113.653 374.298 112.839 c
376.242 112.046 377.739 111.005 378.791 109.715 c
379.842 108.426 380.556 107.097 380.933 105.728 c
381.33 104.359 381.528 102.276 381.528 99.4792 c
h
369.507 102.455 m
369.507 104.478 369.398 105.748 369.18 106.263 c
368.962 106.799 368.495 107.067 367.781 107.067 c
367.067 107.067 366.591 106.799 366.353 106.263 c
366.115 105.748 365.996 104.478 365.996 102.455 c
365.996 84.6311 l
365.996 82.7664 366.115 81.5465 366.353 80.9712 c
366.591 80.4157 367.057 80.138 367.751 80.138 c
368.466 80.138 368.932 80.3959 369.15 80.9117 c
369.388 81.4274 369.507 82.5383 369.507 84.2443 c
369.507 102.455 l
h
f
Q
Q
q
q
0 0 0 rg
413.01 113.345 m
413.01 73.8596 l
400.78 73.8596 l
400.989 77.1327 l
400.155 75.8036 399.124 74.8019 397.894 74.1274 c
396.684 73.4728 395.285 73.1455 393.698 73.1455 c
391.893 73.1455 390.396 73.4629 389.205 74.0976 c
388.015 74.7324 387.132 75.5755 386.557 76.6269 c
386.002 77.6782 385.654 78.7693 385.516 79.9 c
385.377 81.0505 385.307 83.3219 385.307 86.714 c
385.307 113.345 l
397.329 113.345 l
397.329 86.476 l
397.329 83.4012 397.418 81.5762 397.596 81.0009 c
397.795 80.4257 398.311 80.138 399.144 80.138 c
400.036 80.138 400.562 80.4356 400.721 81.0307 c
400.899 81.6258 400.989 83.5401 400.989 86.7735 c
400.989 113.345 l
413.01 113.345 l
h
f
Q
Q
q
q
0 0 0 rg
430 118.612 m
430 112.393 l
433.244 112.393 l
433.244 106.144 l
430 106.144 l
430 85.0179 l
430 82.4193 430.129 80.9712 430.387 80.6736 c
430.665 80.3761 431.786 80.2273 433.749 80.2273 c
433.749 73.8596 l
428.899 73.8596 l
426.162 73.8596 424.208 73.9687 423.037 74.1869 c
421.867 74.425 420.836 74.9506 419.943 75.764 c
419.05 76.5971 418.495 77.5394 418.277 78.5907 c
418.058 79.6619 417.949 82.1614 417.949 86.0891 c
417.949 106.144 l
415.36 106.144 l
415.36 112.393 l
417.949 112.393 l
417.949 118.612 l
430 118.612 l
h
f
Q
Q
Q
Q

% ***
Q
Q
SP
%%PageTrailer
%%PageResources: procset gnome-print-procs-0.34
%%Trailer
%%EOF
