%!PS-Adobe-3.0 EPSF-3.0
%%BoundingBox: 0 0 100 100

0 0 moveto
0 100 rlineto
100 0 rlineto
0 -100 rlineto
clip

/color-curve {
    setrgbcolor
    0 0 moveto
    dup
    0 exch lineto
    dup dup dup dup 0 curveto
    fill
} def

120 -1 1 {
    dup
    240 div 0.5 add
    dup
    0.9 mul exch
    1
    color-curve
} for

showpage