%!PS-Adobe-3.0 EPSF-3.0
%%BoundingBox: -14 -4 38 44

/arm {
newpath
0 0 moveto 
36 0 lineto
20 0 moveto
13 9 rlineto
20 0 moveto
13 -9 rlineto
15 0 moveto
60 rotate
15 0 lineto
} def

/flake {
0 60 300 {
gsave
rotate
arm stroke
grestore
} for
} def

gsave
1 setlinecap
24 -12 add 24 -4 add translate
48 72 div dup scale
4 setlinewidth 0 setgray
flake 
2 setlinewidth 1 setgray
flake
grestore

showpage

