/* XPM */
char * broken_xpm[] = {
/* width height num_colors chars_per_pixel */
"16 16 3 1",
/* colors */
" 	s None	c None",
".	c black",
"X	c white",
/* pixels */
"        ......  ",
" .....  .XXXX.  ",
" .XXX.  .XXXX.  ",
" .XXX.   .XXX.  ",
" .XXXX.  .XXX.  ",
" .XXXX.   .XX.  ",
" .XXXXX.  ....  ",
" .XX....        ",
" ....    ....   ",
"      ....XX.   ",
"   ....XXXXX.   ",
"   .XXXXXXXX.   ",
"   .XXXXXXXX.   ",
"   .XXXXXXXX.   ",
"   ..........   ",
"                "};
